\relax 
\providecommand\hyper@newdestlabel[2]{}
\providecommand\HyperFirstAtBeginDocument{\AtBeginDocument}
\HyperFirstAtBeginDocument{\ifx\hyper@anchor\@undefined
\global\let\oldcontentsline\contentsline
\gdef\contentsline#1#2#3#4{\oldcontentsline{#1}{#2}{#3}}
\global\let\oldnewlabel\newlabel
\gdef\newlabel#1#2{\newlabelxx{#1}#2}
\gdef\newlabelxx#1#2#3#4#5#6{\oldnewlabel{#1}{{#2}{#3}}}
\AtEndDocument{\ifx\hyper@anchor\@undefined
\let\contentsline\oldcontentsline
\let\newlabel\oldnewlabel
\fi}
\fi}
\global\let\hyper@last\relax 
\gdef\HyperFirstAtBeginDocument#1{#1}
\providecommand\HyField@AuxAddToFields[1]{}
\providecommand\HyField@AuxAddToCoFields[2]{}
\select@language{english}
\@writefile{toc}{\select@language{english}}
\@writefile{lof}{\select@language{english}}
\@writefile{lot}{\select@language{english}}
\@writefile{toc}{\contentsline {section}{\numberline {1}Introduction}{2}{section.1}}
\@writefile{toc}{\contentsline {section}{\numberline {2}Code Design and Implementation}{2}{section.2}}
\@writefile{toc}{\contentsline {subsection}{\numberline {2.1}Classes}{2}{subsection.2.1}}
\@writefile{toc}{\contentsline {subsection}{\numberline {2.2}Program Flow}{3}{subsection.2.2}}
\@writefile{lof}{\contentsline {figure}{\numberline {1}{\ignorespaces The menu tree that forms the main program.\relax }}{4}{figure.caption.1}}
\providecommand*\caption@xref[2]{\@setref\relax\@undefined{#1}}
\newlabel{fig:tree}{{1}{4}{The menu tree that forms the main program.\relax }{figure.caption.1}{}}
\@writefile{toc}{\contentsline {subsection}{\numberline {2.3}File Reading}{4}{subsection.2.3}}
\@writefile{lot}{\contentsline {table}{\numberline {1}{\ignorespaces A preview of a possible data file. The first row contains headings for the date of the month, and the second contains headings for the type of entry in the column. The `ket' column is rarely used and can be ignored.\relax }}{4}{table.caption.2}}
\newlabel{tab:cols}{{1}{4}{A preview of a possible data file. The first row contains headings for the date of the month, and the second contains headings for the type of entry in the column. The `ket' column is rarely used and can be ignored.\relax }{table.caption.2}{}}
\@writefile{toc}{\contentsline {subsection}{\numberline {2.4}Analysis Functions}{6}{subsection.2.4}}
\@writefile{toc}{\contentsline {section}{\numberline {3}Results}{6}{section.3}}
\@writefile{toc}{\contentsline {section}{\numberline {4}Conclusion}{7}{section.4}}
